[gd_resource type="DynamicFont" load_steps=2 format=2]

[ext_resource path="res://styles/resources/Aika-Bold.ttf" type="DynamicFontData" id=1]

[resource]
size = 76
outline_size = 8
outline_color = Color( 0.184314, 0.184314, 0.184314, 1 )
font_data = ExtResource( 1 )
