[gd_resource type="StyleBoxFlat" format=2]

[resource]
content_margin_left = 12.0
content_margin_right = 12.0
content_margin_top = 12.0
content_margin_bottom = 8.0
draw_center = false
border_width_bottom = 4
border_color = Color( 0.184314, 0.184314, 0.184314, 1 )
