[gd_resource type="Theme" load_steps=8 format=2]

[ext_resource path="res://styles/style_box/button_hover.tres" type="StyleBox" id=1]
[ext_resource path="res://styles/style_box/button_normal.tres" type="StyleBox" id=2]
[ext_resource path="res://styles/style_box/button_pressed.tres" type="StyleBox" id=3]
[ext_resource path="res://styles/style_box/empty.tres" type="StyleBox" id=4]
[ext_resource path="res://styles/font/button64.tres" type="DynamicFont" id=5]
[ext_resource path="res://styles/resources/Aika-Regular.ttf" type="DynamicFontData" id=6]

[sub_resource type="DynamicFont" id=1]
size = 48
outline_size = 2
outline_color = Color( 0.184314, 0.184314, 0.184314, 1 )
font_data = ExtResource( 6 )

[resource]
default_font = SubResource( 1 )
Button/colors/font_color = Color( 0.184314, 0.184314, 0.184314, 1 )
Button/colors/font_color_focus = Color( 0.184314, 0.184314, 0.184314, 1 )
Button/colors/font_color_hover = Color( 0.184314, 0.184314, 0.184314, 1 )
Button/colors/font_color_pressed = Color( 0.184314, 0.184314, 0.184314, 1 )
Button/fonts/font = ExtResource( 5 )
Button/styles/focus = ExtResource( 4 )
Button/styles/hover = ExtResource( 1 )
Button/styles/normal = ExtResource( 2 )
Button/styles/pressed = ExtResource( 3 )
